1 START OF PROGRAM




 INITIAL PARAMETERS ARE:

     RMESH =    0.10000, RMAX =   20.00000

     NPUNCH =     1, NBPUNCH =   150, IDBUG =     0




          RADIAL FUNCTIONS WRITTEN TO FILE = 6LI6LI  
                                             --------


1              INPUT PARAMETERS FOR INDEX =   1


          RMESH           0.10          RMAX           20.00


 PARTICLE
          BIND ENERGY      7.11          PART MASS         1.
          ORB ANG MOM        1.          NODE              0.
          PART CHARGE        1.          TOT ANG MOM      1.50
          SPIN            0.50



 CORE
          CORE MASS         5.          CORE CHARGE        2.
          POT DEPTH      60.00          DIFFUSENESS      0.65
          CORE RADIUS      1.25         COUL RADIUS      1.25
          SPIN ORB POT      7.00

                NODE     ORB ANG MOM    TOT ANG MOM
                  0.           1.00           1.50

   73.5140839    
   0.10    0.43298E-01        4.60    0.49082E-01        9.10    0.18507E-02       13.60    0.10236E-03
   0.20    0.85932E-01        4.70    0.45287E-01        9.20    0.17307E-02       13.70    0.96188E-04
   0.30    0.12729E+00        4.80    0.41802E-01        9.30    0.16187E-02       13.80    0.90396E-04
   0.40    0.16678E+00        4.90    0.38600E-01        9.40    0.15142E-02       13.90    0.84959E-04
   0.50    0.20388E+00        5.00    0.35658E-01        9.50    0.14166E-02       14.00    0.79854E-04
   0.60    0.23811E+00        5.10    0.32954E-01        9.60    0.13256E-02       14.10    0.75060E-04
   0.70    0.26907E+00        5.20    0.30467E-01        9.70    0.12406E-02       14.20    0.70559E-04
   0.80    0.29641E+00        5.30    0.28180E-01        9.80    0.11612E-02       14.30    0.66333E-04
   0.90    0.31990E+00        5.40    0.26075E-01        9.90    0.10870E-02       14.40    0.62363E-04
   1.00    0.33937E+00        5.50    0.24138E-01       10.00    0.10178E-02       14.50    0.58635E-04
   1.10    0.35473E+00        5.60    0.22353E-01       10.10    0.95302E-03       14.60    0.55133E-04
   1.20    0.36601E+00        5.70    0.20709E-01       10.20    0.89253E-03       14.70    0.51844E-04
   1.30    0.37330E+00        5.80    0.19193E-01       10.30    0.83599E-03       14.80    0.48753E-04
   1.40    0.37676E+00        5.90    0.17795E-01       10.40    0.78313E-03       14.90    0.45850E-04
   1.50    0.37664E+00        6.00    0.16505E-01       10.50    0.73371E-03       15.00    0.43122E-04
   1.60    0.37323E+00        6.10    0.15314E-01       10.60    0.68749E-03       15.10    0.40559E-04
   1.70    0.36688E+00        6.20    0.14214E-01       10.70    0.64426E-03       15.20    0.38150E-04
   1.80    0.35796E+00        6.30    0.13198E-01       10.80    0.60382E-03       15.30    0.35887E-04
   1.90    0.34686E+00        6.40    0.12259E-01       10.90    0.56598E-03       15.40    0.33759E-04
   2.00    0.33398E+00        6.50    0.11390E-01       11.00    0.53058E-03       15.50    0.31760E-04
   2.10    0.31972E+00        6.60    0.10587E-01       11.10    0.49745E-03       15.60    0.29880E-04
   2.20    0.30444E+00        6.70    0.98429E-02       11.20    0.46643E-03       15.70    0.28114E-04
   2.30    0.28850E+00        6.80    0.91543E-02       11.30    0.43740E-03       15.80    0.26453E-04
   2.40    0.27220E+00        6.90    0.85164E-02       11.40    0.41022E-03       15.90    0.24891E-04
   2.50    0.25583E+00        7.00    0.79253E-02       11.50    0.38477E-03       16.00    0.23423E-04
   2.60    0.23960E+00        7.10    0.73773E-02       11.60    0.36093E-03       16.10    0.22043E-04
   2.70    0.22372E+00        7.20    0.68692E-02       11.70    0.33860E-03       16.20    0.20745E-04
   2.80    0.20833E+00        7.30    0.63978E-02       11.80    0.31769E-03       16.30    0.19524E-04
   2.90    0.19356E+00        7.40    0.59603E-02       11.90    0.29810E-03       16.40    0.18377E-04
   3.00    0.17948E+00        7.50    0.55542E-02       12.00    0.27974E-03       16.50    0.17297E-04
   3.10    0.16615E+00        7.60    0.51770E-02       12.10    0.26253E-03       16.60    0.16282E-04
   3.20    0.15361E+00        7.70    0.48267E-02       12.20    0.24641E-03       16.70    0.15327E-04
   3.30    0.14185E+00        7.80    0.45011E-02       12.30    0.23130E-03       16.80    0.14429E-04
   3.40    0.13088E+00        7.90    0.41984E-02       12.40    0.21713E-03       16.90    0.13584E-04
   3.50    0.12068E+00        8.00    0.39170E-02       12.50    0.20385E-03       17.00    0.12789E-04
   3.60    0.11122E+00        8.10    0.36553E-02       12.60    0.19140E-03       17.10    0.12041E-04
   3.70    0.10247E+00        8.20    0.34118E-02       12.70    0.17973E-03       17.20    0.11338E-04
   3.80    0.94383E-01        8.30    0.31851E-02       12.80    0.16877E-03       17.30    0.10676E-04
   3.90    0.86930E-01        8.40    0.29742E-02       12.90    0.15850E-03       17.40    0.10053E-04
   4.00    0.80066E-01        8.50    0.27777E-02       13.00    0.14887E-03       17.50    0.94672E-05
   4.10    0.73752E-01        8.60    0.25948E-02       13.10    0.13983E-03       17.60    0.89158E-05
   4.20    0.67947E-01        8.70    0.24243E-02       13.20    0.13136E-03       17.70    0.83969E-05
   4.30    0.62613E-01        8.80    0.22655E-02       13.30    0.12340E-03       17.80    0.79086E-05
   4.40    0.57713E-01        8.90    0.21174E-02       13.40    0.11594E-03       17.90    0.74490E-05
   4.50    0.53214E-01        9.00    0.19794E-02       13.50    0.10893E-03       18.00    0.70165E-05



     VOLUME =      1.00000     R**2 MOMENT =      7.55412     RADIUS =      2.74848

     N =   0, L =   1, J =   3/2, MZ =  -1 WRITTEN WITH INDEX =    1 TO FILE = 6LI6LI  

1              INPUT PARAMETERS FOR INDEX =   2


          RMESH           0.10          RMAX           20.00


 PARTICLE
          BIND ENERGY      0.51          PART MASS         1.
          ORB ANG MOM        1.          NODE              0.
          PART CHARGE        1.          TOT ANG MOM      0.50
          SPIN            0.50



 CORE
          CORE MASS         5.          CORE CHARGE        2.
          POT DEPTH      60.00          DIFFUSENESS      0.65
          CORE RADIUS      1.25         COUL RADIUS      1.25
          SPIN ORB POT      7.00

                NODE     ORB ANG MOM    TOT ANG MOM
                  0.           1.00           0.50

   59.6306686    
   0.10    0.28644E-01        4.60    0.74311E-01        9.10    0.12260E-01       13.60    0.33788E-02
   0.20    0.56948E-01        4.70    0.70675E-01        9.20    0.11869E-01       13.70    0.32941E-02
   0.30    0.84557E-01        4.80    0.67255E-01        9.30    0.11492E-01       13.80    0.32119E-02
   0.40    0.11113E+00        4.90    0.64036E-01        9.40    0.11130E-01       13.90    0.31322E-02
   0.50    0.13636E+00        5.00    0.61005E-01        9.50    0.10781E-01       14.00    0.30548E-02
   0.60    0.15996E+00        5.10    0.58151E-01        9.60    0.10446E-01       14.10    0.29797E-02
   0.70    0.18169E+00        5.20    0.55461E-01        9.70    0.10123E-01       14.20    0.29068E-02
   0.80    0.20133E+00        5.30    0.52925E-01        9.80    0.98115E-02       14.30    0.28360E-02
   0.90    0.21873E+00        5.40    0.50533E-01        9.90    0.95119E-02       14.40    0.27672E-02
   1.00    0.23377E+00        5.50    0.48275E-01       10.00    0.92232E-02       14.50    0.27005E-02
   1.10    0.24638E+00        5.60    0.46142E-01       10.10    0.89449E-02       14.60    0.26357E-02
   1.20    0.25654E+00        5.70    0.44127E-01       10.20    0.86766E-02       14.70    0.25727E-02
   1.30    0.26427E+00        5.80    0.42221E-01       10.30    0.84179E-02       14.80    0.25116E-02
   1.40    0.26963E+00        5.90    0.40418E-01       10.40    0.81683E-02       14.90    0.24522E-02
   1.50    0.27275E+00        6.00    0.38711E-01       10.50    0.79276E-02       15.00    0.23945E-02
   1.60    0.27374E+00        6.10    0.37094E-01       10.60    0.76953E-02       15.10    0.23384E-02
   1.70    0.27280E+00        6.20    0.35561E-01       10.70    0.74710E-02       15.20    0.22839E-02
   1.80    0.27010E+00        6.30    0.34107E-01       10.80    0.72545E-02       15.30    0.22310E-02
   1.90    0.26586E+00        6.40    0.32727E-01       10.90    0.70454E-02       15.40    0.21796E-02
   2.00    0.26028E+00        6.50    0.31416E-01       11.00    0.68435E-02       15.50    0.21296E-02
   2.10    0.25359E+00        6.60    0.30171E-01       11.10    0.66484E-02       15.60    0.20810E-02
   2.20    0.24599E+00        6.70    0.28987E-01       11.20    0.64598E-02       15.70    0.20338E-02
   2.30    0.23769E+00        6.80    0.27861E-01       11.30    0.62776E-02       15.80    0.19879E-02
   2.40    0.22887E+00        6.90    0.26789E-01       11.40    0.61015E-02       15.90    0.19433E-02
   2.50    0.21971E+00        7.00    0.25768E-01       11.50    0.59312E-02       16.00    0.18999E-02
   2.60    0.21035E+00        7.10    0.24795E-01       11.60    0.57665E-02       16.10    0.18577E-02
   2.70    0.20092E+00        7.20    0.23867E-01       11.70    0.56072E-02       16.20    0.18167E-02
   2.80    0.19155E+00        7.30    0.22983E-01       11.80    0.54530E-02       16.30    0.17768E-02
   2.90    0.18231E+00        7.40    0.22139E-01       11.90    0.53039E-02       16.40    0.17381E-02
   3.00    0.17329E+00        7.50    0.21333E-01       12.00    0.51596E-02       16.50    0.17004E-02
   3.10    0.16453E+00        7.60    0.20563E-01       12.10    0.50199E-02       16.60    0.16637E-02
   3.20    0.15609E+00        7.70    0.19827E-01       12.20    0.48847E-02       16.70    0.16281E-02
   3.30    0.14799E+00        7.80    0.19123E-01       12.30    0.47537E-02       16.80    0.15934E-02
   3.40    0.14025E+00        7.90    0.18450E-01       12.40    0.46269E-02       16.90    0.15597E-02
   3.50    0.13288E+00        8.00    0.17806E-01       12.50    0.45041E-02       17.00    0.15269E-02
   3.60    0.12588E+00        8.10    0.17190E-01       12.60    0.43851E-02       17.10    0.14950E-02
   3.70    0.11925E+00        8.20    0.16599E-01       12.70    0.42698E-02       17.20    0.14640E-02
   3.80    0.11299E+00        8.30    0.16033E-01       12.80    0.41581E-02       17.30    0.14338E-02
   3.90    0.10707E+00        8.40    0.15491E-01       12.90    0.40498E-02       17.40    0.14045E-02
   4.00    0.10150E+00        8.50    0.14971E-01       13.00    0.39449E-02       17.50    0.13760E-02
   4.10    0.96248E-01        8.60    0.14472E-01       13.10    0.38431E-02       17.60    0.13482E-02
   4.20    0.91308E-01        8.70    0.13993E-01       13.20    0.37445E-02       17.70    0.13212E-02
   4.30    0.86660E-01        8.80    0.13533E-01       13.30    0.36488E-02       17.80    0.12950E-02
   4.40    0.82288E-01        8.90    0.13092E-01       13.40    0.35561E-02       17.90    0.12695E-02
   4.50    0.78177E-01        9.00    0.12668E-01       13.50    0.34661E-02       18.00    0.12446E-02



     VOLUME =      0.99994     R**2 MOMENT =     18.39764     RADIUS =      4.28937

     N =   0, L =   1, J =   1/2, MZ =  -1 WRITTEN WITH INDEX =    2 TO FILE = 6LI6LI  

1              INPUT PARAMETERS FOR INDEX =   3


          RMESH           0.10          RMAX           20.00


 PARTICLE
          BIND ENERGY      8.54          PART MASS         1.
          ORB ANG MOM        1.          NODE              0.
          PART CHARGE        0.          TOT ANG MOM      1.50
          SPIN            0.50



 CORE
          CORE MASS         5.          CORE CHARGE        3.
          POT DEPTH      60.00          DIFFUSENESS      0.65
          CORE RADIUS      1.25         COUL RADIUS      1.25
          SPIN ORB POT      7.00

                NODE     ORB ANG MOM    TOT ANG MOM
                  0.           1.00           1.50

   73.9670944    
   0.10    0.44568E-01        4.60    0.46741E-01        9.10    0.15045E-02       13.60    0.69060E-04
   0.20    0.88441E-01        4.70    0.43001E-01        9.20    0.14014E-02       13.70    0.64617E-04
   0.30    0.13098E+00        4.80    0.39573E-01        9.30    0.13055E-02       13.80    0.60465E-04
   0.40    0.17157E+00        4.90    0.36432E-01        9.40    0.12164E-02       13.90    0.56582E-04
   0.50    0.20965E+00        5.00    0.33553E-01        9.50    0.11336E-02       14.00    0.52953E-04
   0.60    0.24474E+00        5.10    0.30913E-01        9.60    0.10565E-02       14.10    0.49559E-04
   0.70    0.27641E+00        5.20    0.28492E-01        9.70    0.98480E-03       14.20    0.46385E-04
   0.80    0.30432E+00        5.30    0.26270E-01        9.80    0.91810E-03       14.30    0.43418E-04
   0.90    0.32820E+00        5.40    0.24231E-01        9.90    0.85603E-03       14.40    0.40642E-04
   1.00    0.34790E+00        5.50    0.22358E-01       10.00    0.79826E-03       14.50    0.38046E-04
   1.10    0.36333E+00        5.60    0.20638E-01       10.10    0.74448E-03       14.60    0.35618E-04
   1.20    0.37453E+00        5.70    0.19058E-01       10.20    0.69441E-03       14.70    0.33347E-04
   1.30    0.38159E+00        5.80    0.17604E-01       10.30    0.64779E-03       14.80    0.31223E-04
   1.40    0.38470E+00        5.90    0.16268E-01       10.40    0.60437E-03       14.90    0.29235E-04
   1.50    0.38411E+00        6.00    0.15038E-01       10.50    0.56392E-03       15.00    0.27375E-04
   1.60    0.38014E+00        6.10    0.13906E-01       10.60    0.52625E-03       15.10    0.25636E-04
   1.70    0.37316E+00        6.20    0.12864E-01       10.70    0.49114E-03       15.20    0.24007E-04
   1.80    0.36355E+00        6.30    0.11903E-01       10.80    0.45843E-03       15.30    0.22484E-04
   1.90    0.35174E+00        6.40    0.11018E-01       10.90    0.42794E-03       15.40    0.21058E-04
   2.00    0.33813E+00        6.50    0.10202E-01       11.00    0.39952E-03       15.50    0.19724E-04
   2.10    0.32314E+00        6.60    0.94490E-02       11.10    0.37303E-03       15.60    0.18475E-04
   2.20    0.30716E+00        6.70    0.87543E-02       11.20    0.34833E-03       15.70    0.17306E-04
   2.30    0.29055E+00        6.80    0.81131E-02       11.30    0.32530E-03       15.80    0.16212E-04
   2.40    0.27361E+00        6.90    0.75209E-02       11.40    0.30382E-03       15.90    0.15187E-04
   2.50    0.25665E+00        7.00    0.69739E-02       11.50    0.28378E-03       16.00    0.14229E-04
   2.60    0.23989E+00        7.10    0.64684E-02       11.60    0.26509E-03       16.10    0.13331E-04
   2.70    0.22353E+00        7.20    0.60011E-02       11.70    0.24766E-03       16.20    0.12490E-04
   2.80    0.20772E+00        7.30    0.55689E-02       11.80    0.23139E-03       16.30    0.11703E-04
   2.90    0.19257E+00        7.40    0.51692E-02       11.90    0.21621E-03       16.40    0.10966E-04
   3.00    0.17817E+00        7.50    0.47993E-02       12.00    0.20205E-03       16.50    0.10276E-04
   3.10    0.16457E+00        7.60    0.44569E-02       12.10    0.18882E-03       16.60    0.96302E-05
   3.20    0.15179E+00        7.70    0.41398E-02       12.20    0.17648E-03       16.70    0.90251E-05
   3.30    0.13985E+00        7.80    0.38462E-02       12.30    0.16496E-03       16.80    0.84583E-05
   3.40    0.12872E+00        7.90    0.35742E-02       12.40    0.15420E-03       16.90    0.79275E-05
   3.50    0.11840E+00        8.00    0.33221E-02       12.50    0.14416E-03       17.00    0.74303E-05
   3.60    0.10885E+00        8.10    0.30884E-02       12.60    0.13478E-03       17.10    0.69646E-05
   3.70    0.10003E+00        8.20    0.28717E-02       12.70    0.12602E-03       17.20    0.65284E-05
   3.80    0.91896E-01        8.30    0.26708E-02       12.80    0.11784E-03       17.30    0.61198E-05
   3.90    0.84417E-01        8.40    0.24844E-02       12.90    0.11020E-03       17.40    0.57369E-05
   4.00    0.77545E-01        8.50    0.23114E-02       13.00    0.10306E-03       17.50    0.53783E-05
   4.10    0.71236E-01        8.60    0.21508E-02       13.10    0.96392E-04       17.60    0.50423E-05
   4.20    0.65449E-01        8.70    0.20018E-02       13.20    0.90161E-04       17.70    0.47275E-05
   4.30    0.60143E-01        8.80    0.18634E-02       13.30    0.84338E-04       17.80    0.44325E-05
   4.40    0.55280E-01        8.90    0.17349E-02       13.40    0.78897E-04       17.90    0.41561E-05
   4.50    0.50824E-01        9.00    0.16155E-02       13.50    0.73812E-04       18.00    0.38971E-05



     VOLUME =      1.00000     R**2 MOMENT =      7.24653     RADIUS =      2.69194

     N =   0, L =   1, J =   3/2, MZ =   1 WRITTEN WITH INDEX =    3 TO FILE = 6LI6LI  

1              INPUT PARAMETERS FOR INDEX =   4


          RMESH           0.10          RMAX           20.00


 PARTICLE
          BIND ENERGY      1.75          PART MASS         1.
          ORB ANG MOM        1.          NODE              0.
          PART CHARGE        0.          TOT ANG MOM      0.50
          SPIN            0.50



 CORE
          CORE MASS         5.          CORE CHARGE        3.
          POT DEPTH      60.00          DIFFUSENESS      0.65
          CORE RADIUS      1.25         COUL RADIUS      1.25
          SPIN ORB POT      7.00

                NODE     ORB ANG MOM    TOT ANG MOM
                  0.           1.00           0.50

   60.4866982    
   0.10    0.31371E-01        4.60    0.71578E-01        9.10    0.86948E-02       13.60    0.16016E-02
   0.20    0.62358E-01        4.70    0.67719E-01        9.20    0.83495E-02       13.70    0.15461E-02
   0.30    0.92562E-01        4.80    0.64097E-01        9.30    0.80192E-02       13.80    0.14926E-02
   0.40    0.12160E+00        4.90    0.60699E-01        9.40    0.77034E-02       13.90    0.14411E-02
   0.50    0.14912E+00        5.00    0.57507E-01        9.50    0.74012E-02       14.00    0.13915E-02
   0.60    0.17481E+00        5.10    0.54510E-01        9.60    0.71121E-02       14.10    0.13437E-02
   0.70    0.19839E+00        5.20    0.51694E-01        9.70    0.68353E-02       14.20    0.12976E-02
   0.80    0.21963E+00        5.30    0.49047E-01        9.80    0.65704E-02       14.30    0.12532E-02
   0.90    0.23836E+00        5.40    0.46557E-01        9.90    0.63167E-02       14.40    0.12104E-02
   1.00    0.25444E+00        5.50    0.44213E-01       10.00    0.60737E-02       14.50    0.11691E-02
   1.10    0.26781E+00        5.60    0.42007E-01       10.10    0.58409E-02       14.60    0.11293E-02
   1.20    0.27844E+00        5.70    0.39929E-01       10.20    0.56179E-02       14.70    0.10910E-02
   1.30    0.28637E+00        5.80    0.37970E-01       10.30    0.54041E-02       14.80    0.10540E-02
   1.40    0.29168E+00        5.90    0.36123E-01       10.40    0.51992E-02       14.90    0.10184E-02
   1.50    0.29449E+00        6.00    0.34380E-01       10.50    0.50028E-02       15.00    0.98399E-03
   1.60    0.29498E+00        6.10    0.32735E-01       10.60    0.48144E-02       15.10    0.95084E-03
   1.70    0.29334E+00        6.20    0.31180E-01       10.70    0.46337E-02       15.20    0.91887E-03
   1.80    0.28978E+00        6.30    0.29711E-01       10.80    0.44604E-02       15.30    0.88803E-03
   1.90    0.28454E+00        6.40    0.28322E-01       10.90    0.42940E-02       15.40    0.85828E-03
   2.00    0.27787E+00        6.50    0.27008E-01       11.00    0.41344E-02       15.50    0.82958E-03
   2.10    0.27001E+00        6.60    0.25764E-01       11.10    0.39812E-02       15.60    0.80190E-03
   2.20    0.26120E+00        6.70    0.24586E-01       11.20    0.38341E-02       15.70    0.77519E-03
   2.30    0.25166E+00        6.80    0.23470E-01       11.30    0.36929E-02       15.80    0.74942E-03
   2.40    0.24160E+00        6.90    0.22412E-01       11.40    0.35573E-02       15.90    0.72455E-03
   2.50    0.23120E+00        7.00    0.21409E-01       11.50    0.34271E-02       16.00    0.70055E-03
   2.60    0.22064E+00        7.10    0.20456E-01       11.60    0.33020E-02       16.10    0.67738E-03
   2.70    0.21006E+00        7.20    0.19553E-01       11.70    0.31818E-02       16.20    0.65503E-03
   2.80    0.19957E+00        7.30    0.18694E-01       11.80    0.30662E-02       16.30    0.63346E-03
   2.90    0.18928E+00        7.40    0.17879E-01       11.90    0.29552E-02       16.40    0.61263E-03
   3.00    0.17926E+00        7.50    0.17103E-01       12.00    0.28485E-02       16.50    0.59253E-03
   3.10    0.16957E+00        7.60    0.16366E-01       12.10    0.27460E-02       16.60    0.57312E-03
   3.20    0.16026E+00        7.70    0.15665E-01       12.20    0.26474E-02       16.70    0.55438E-03
   3.30    0.15134E+00        7.80    0.14998E-01       12.30    0.25525E-02       16.80    0.53630E-03
   3.40    0.14285E+00        7.90    0.14363E-01       12.40    0.24613E-02       16.90    0.51883E-03
   3.50    0.13479E+00        8.00    0.13758E-01       12.50    0.23736E-02       17.00    0.50197E-03
   3.60    0.12715E+00        8.10    0.13181E-01       12.60    0.22892E-02       17.10    0.48568E-03
   3.70    0.11994E+00        8.20    0.12632E-01       12.70    0.22080E-02       17.20    0.46996E-03
   3.80    0.11313E+00        8.30    0.12109E-01       12.80    0.21299E-02       17.30    0.45477E-03
   3.90    0.10673E+00        8.40    0.11609E-01       12.90    0.20548E-02       17.40    0.44011E-03
   4.00    0.10071E+00        8.50    0.11133E-01       13.00    0.19824E-02       17.50    0.42595E-03
   4.10    0.95050E-01        8.60    0.10678E-01       13.10    0.19128E-02       17.60    0.41227E-03
   4.20    0.89739E-01        8.70    0.10244E-01       13.20    0.18457E-02       17.70    0.39906E-03
   4.30    0.84754E-01        8.80    0.98300E-02       13.30    0.17812E-02       17.80    0.38629E-03
   4.40    0.80079E-01        8.90    0.94342E-02       13.40    0.17191E-02       17.90    0.37397E-03
   4.50    0.75692E-01        9.00    0.90562E-02       13.50    0.16592E-02       18.00    0.36206E-03



     VOLUME =      1.00000     R**2 MOMENT =     13.61409     RADIUS =      3.68973

     N =   0, L =   1, J =   1/2, MZ =   1 WRITTEN WITH INDEX =    4 TO FILE = 6LI6LI  

