       0.1      20.0    1  150    0
6LI6LI
     5.000        2.       60.      0.65      1.25      1.25       7.0
     4.433      1.00      1.00      0.00      1.00      1.50      0.50
     5.000        2.       60.      0.65      1.25      1.25       7.0
      0.51      1.00      1.00      0.00      1.00      0.50      0.50
     5.000        3.       60.      0.65      1.25      1.25       7.0
      5.66      1.00      1.00      0.00      0.00      1.50      0.50
     5.000        3.       60.      0.65      1.25      1.25       7.0
      1.75      1.00      1.00      0.00      0.00      0.50      0.50
-1