       0.1      20.0    1  150    0
C12N12
    11.000        6.       60.      0.65      1.25      1.25       7.0
     28.30      1.00      0.00      0.00      0.00      0.50      0.50
    11.000        6.       60.      0.65      1.25      1.25       7.0
     15.00      1.00      1.00      0.00      0.00      1.50      0.50
    11.000        6.       60.      0.65      1.25      1.25       7.0
      8.80      1.00      1.00      0.00      0.00      0.50      0.50
    11.000        6.       60.      0.65      1.25      1.25       7.0
      1.49      1.00      2.00      0.00      0.00      2.50      0.50
    11.000        6.       60.      0.65      1.25      1.25       7.0
      1.00      1.00      2.00      0.00      0.00      1.50      0.50
    11.000        6.       60.      0.65      1.25      1.25       7.0
      0.80      1.00      0.00      1.00      0.00      0.50      0.50
    11.000        6.       60.      0.65      1.25      1.25       7.0
     20.73      1.00      0.00      0.00      1.00      0.50      0.50
    11.000        6.       60.      0.65      1.25      1.25       7.0
      8.24      1.00      1.00      0.00      1.00      1.50      0.50
    11.000        6.       60.      0.65      1.25      1.25       7.0
      2.96      1.00      1.00      0.00      1.00      0.50      0.50
    11.000        6.       60.      0.65      1.25      1.25       7.0
      1.00      1.00      2.00      0.00      1.00      2.50      0.50
    11.000        6.       60.      0.65      1.25      1.25       7.0
      1.00      1.00      2.00      0.00      1.00      1.50      0.50
    11.000        6.       60.      0.65      1.25      1.25       7.0
      1.00      1.00      0.00      1.00      1.00      0.50      0.50
-1